Tolstoy Analysis
…
  #bind_rows(anna_karenina, boyhood, childhood, cossacks, resurrection, war_and_peace, youth)
#bind_rows(childhood, resurrection)

Lollipop plot with different numbers of indicies:

data_final<- data %>% 
  group_by(title) %>% 
  inner_join(get_sentiments("bing"), by = c("words" = "word")) %>% 
  count(title, index = as.numeric(rowname)%/%1500, sentiment) %>%
  spread(sentiment, n, fill = 0) %>%
  mutate(sentiment = positive/(positive +negative))
data_final

## # A tibble: 396 x 5
## # Groups:   title [4]
##    title         index negative positive sentiment
##    <chr>         <dbl>    <dbl>    <dbl>     <dbl>
##  1 anna_karenina     0       61       41     0.402
##  2 anna_karenina     1       45       50     0.526
##  3 anna_karenina     2       57       60     0.513
##  4 anna_karenina     3       64       40     0.385
##  5 anna_karenina     4       33       66     0.667
##  6 anna_karenina     5       31       50     0.617
##  7 anna_karenina     6       30       55     0.647
##  8 anna_karenina     7       36       41     0.532
##  9 anna_karenina     8       39       66     0.629
## 10 anna_karenina     9       31       94     0.752
## # ... with 386 more rows
…
data_final<- data %>% 
  group_by(title) %>% 
  inner_join(get_sentiments("bing"), by = c("words" = "word")) %>% 
  count(title, index = as.numeric(rowname)%/%as.numeric(max(as.numeric(rowname)/50)), sentiment) %>%
  filter(as.numeric(index)!=50) %>% 
  spread(sentiment, n, fill = 0) %>%
  mutate(sentiment = positive/(positive +negative))
data_final

## # A tibble: 200 x 5
## # Groups:   title [4]
##    title         index negative positive sentiment
##    <chr>         <dbl>    <dbl>    <dbl>     <dbl>
##  1 anna_karenina     0      246      242     0.496
##  2 anna_karenina     1      166      259     0.609
##  3 anna_karenina     2      202      302     0.599
##  4 anna_karenina     3      176      288     0.621
##  5 anna_karenina     4      175      251     0.589
##  6 anna_karenina     5      238      218     0.478
##  7 anna_karenina     6      217      221     0.505
##  8 anna_karenina     7      224      255     0.532
##  9 anna_karenina     8      196      224     0.533
## 10 anna_karenina     9      212      233     0.524
## # ... with 190 more rows
…
Original bar charts:

afinn_data <- data %>% 
  inner_join(get_sentiments("afinn"), by = c("words" = "word")) %>% 
  group_by(title, index = as.numeric(rowname) %/%1500) %>% 
  summarise(sentiment = sum(score))

get_sentiments("afinn")

## # A tibble: 2,476 x 2
##    word       score
##    <chr>      <int>
##  1 abandon       -2
##  2 abandoned     -2
##  3 abandons      -2
##  4 abducted      -2
##  5 abduction     -2
##  6 abductions    -2
##  7 abhor         -3
##  8 abhorred      -3
##  9 abhorrent     -3
## 10 abhors        -3
## # ... with 2,466 more rows
…
